// Jest Snapshot v1, https://goo.gl/fbAQLP

exports[`renders with tooltip component 1`] = `
<DocumentFragment>
  <div
    class="sc-AxhUy hPxmXL"
  >
    <div
      class="sc-AxhCb dSCGsU"
    >
      <div>
        <svg
          viewBox="0 0 24 28"
        >
          <path
            d="M14 8.5v7c0 0.281-0.219 0.5-0.5 0.5h-5c-0.281 0-0.5-0.219-0.5-0.5v-1c0-0.281 0.219-0.5 0.5-0.5h3.5v-5.5c0-0.281 0.219-0.5 0.5-0.5h1c0.281 0 0.5 0.219 0.5 0.5zM20.5 14c0-4.688-3.813-8.5-8.5-8.5s-8.5 3.813-8.5 8.5 3.813 8.5 8.5 8.5 8.5-3.813 8.5-8.5zM24 14c0 6.625-5.375 12-12 12s-12-5.375-12-12 5.375-12 12-12 12 5.375 12 12z"
          />
        </svg>
        <span>
          24/11/2018 – 17:00
        </span>
      </div>
      <div>
        <svg
          viewBox="0 0 16 28"
        >
          <path
            d="M12 10c0-2.203-1.797-4-4-4s-4 1.797-4 4 1.797 4 4 4 4-1.797 4-4zM16 10c0 0.953-0.109 1.937-0.516 2.797l-5.688 12.094c-0.328 0.688-1.047 1.109-1.797 1.109s-1.469-0.422-1.781-1.109l-5.703-12.094c-0.406-0.859-0.516-1.844-0.516-2.797 0-4.422 3.578-8 8-8s8 3.578 8 8z"
          />
        </svg>
        <span>
          Cornella del Terri
        </span>
      </div>
      <div>
        <svg
          viewBox="0 0 20 28"
        >
          <path
            d="M20 21.859c0 2.281-1.5 4.141-3.328 4.141h-13.344c-1.828 0-3.328-1.859-3.328-4.141 0-4.109 1.016-8.859 5.109-8.859 1.266 1.234 2.984 2 4.891 2s3.625-0.766 4.891-2c4.094 0 5.109 4.75 5.109 8.859zM16 8c0 3.313-2.688 6-6 6s-6-2.688-6-6 2.688-6 6-6 6 2.688 6 6z"
          />
        </svg>
        <span>
          Laganja Greene
        </span>
      </div>
      <div>
        <svg
          viewBox="0 0 30 28"
        >
          <path
            d="M12 18h6v-1.5h-2v-7h-1.781l-2.312 2.141 1.203 1.25c0.375-0.328 0.609-0.5 0.859-0.891h0.031v4.5h-2v1.5zM20 14c0 2.844-1.719 6.5-5 6.5s-5-3.656-5-6.5 1.719-6.5 5-6.5 5 3.656 5 6.5zM28 18v-8c-2.203 0-4-1.797-4-4h-18c0 2.203-1.797 4-4 4v8c2.203 0 4 1.797 4 4h18c0-2.203 1.797-4 4-4zM30 5v18c0 0.547-0.453 1-1 1h-28c-0.547 0-1-0.453-1-1v-18c0-0.547 0.453-1 1-1h28c0.547 0 1 0.453 1 1z"
          />
        </svg>
        <span>
          2.5 – Not paid
        </span>
      </div>
    </div>
    <div
      class="sc-AxjAm fbChYV"
    >
      <svg
        class="sc-AxirZ iMGYgr"
        viewBox="0 0 29 28"
      >
        <path
          d="M13 15.625v-3c-1.906 0.172-4.203 0.938-6 1.828v2.891c1.813-0.844 4.062-1.563 6-1.719zM13 9.094v-3.078c-1.969 0.094-4.281 1.016-6 1.969v2.953c1.844-0.953 4.062-1.766 6-1.844zM26 16.328v-2.875c-1.422 0.703-3.906 1.75-6 1.109v-3.5c-0.203-0.063-0.406-0.141-0.609-0.234-1.797-0.906-3.266-1.75-5.625-1.75-0.25 0-0.5 0.016-0.766 0.047v3.469h0.297c2.359 0 4.297 0.844 6.094 1.734 0.203 0.094 0.406 0.172 0.609 0.234v2.938c0.422 0.172 0.891 0.266 1.422 0.266 1.734 0 3.609-0.922 4.578-1.437zM26 9.656v-2.953c-1.25 0.672-3 1.422-4.781 1.422v0c-0.422 0-0.828-0.031-1.219-0.125v3.063c2.094 0.594 4.578-0.609 6-1.406zM5 4c0 0.734-0.406 1.375-1 1.719v19.781c0 0.281-0.219 0.5-0.5 0.5h-1c-0.281 0-0.5-0.219-0.5-0.5v-19.781c-0.594-0.344-1-0.984-1-1.719 0-1.109 0.891-2 2-2s2 0.891 2 2zM28 5v11.922c0 0.375-0.219 0.719-0.547 0.891-0.063 0.031-0.156 0.078-0.266 0.141-1 0.531-3.359 1.813-5.766 1.813-0.922 0-1.75-0.187-2.469-0.547l-0.438-0.219c-1.578-0.797-2.828-1.422-4.75-1.422-2.25 0-5.422 1.172-7.25 2.281-0.156 0.094-0.344 0.141-0.516 0.141s-0.344-0.047-0.5-0.125c-0.313-0.187-0.5-0.516-0.5-0.875v-11.594c0-0.344 0.187-0.672 0.484-0.859 1-0.594 4.531-2.547 7.812-2.547 2.609 0 4.734 0.953 6.531 1.828 0.406 0.203 0.875 0.297 1.391 0.297 1.844 0 3.875-1.172 4.844-1.75 0.203-0.109 0.375-0.203 0.484-0.266 0.313-0.156 0.672-0.141 0.969 0.031 0.297 0.187 0.484 0.516 0.484 0.859z"
        />
      </svg>
    </div>
  </div>
</DocumentFragment>
`;

exports[`renders without tooltip component 1`] = `
<DocumentFragment>
  <div
    class="sc-AxhUy hPxmXL"
  >
    <div
      class="sc-AxjAm fbChYV"
    >
      <svg
        class="sc-AxirZ iMGYgr"
        viewBox="0 0 29 28"
      >
        <path
          d="M13 15.625v-3c-1.906 0.172-4.203 0.938-6 1.828v2.891c1.813-0.844 4.062-1.563 6-1.719zM13 9.094v-3.078c-1.969 0.094-4.281 1.016-6 1.969v2.953c1.844-0.953 4.062-1.766 6-1.844zM26 16.328v-2.875c-1.422 0.703-3.906 1.75-6 1.109v-3.5c-0.203-0.063-0.406-0.141-0.609-0.234-1.797-0.906-3.266-1.75-5.625-1.75-0.25 0-0.5 0.016-0.766 0.047v3.469h0.297c2.359 0 4.297 0.844 6.094 1.734 0.203 0.094 0.406 0.172 0.609 0.234v2.938c0.422 0.172 0.891 0.266 1.422 0.266 1.734 0 3.609-0.922 4.578-1.437zM26 9.656v-2.953c-1.25 0.672-3 1.422-4.781 1.422v0c-0.422 0-0.828-0.031-1.219-0.125v3.063c2.094 0.594 4.578-0.609 6-1.406zM5 4c0 0.734-0.406 1.375-1 1.719v19.781c0 0.281-0.219 0.5-0.5 0.5h-1c-0.281 0-0.5-0.219-0.5-0.5v-19.781c-0.594-0.344-1-0.984-1-1.719 0-1.109 0.891-2 2-2s2 0.891 2 2zM28 5v11.922c0 0.375-0.219 0.719-0.547 0.891-0.063 0.031-0.156 0.078-0.266 0.141-1 0.531-3.359 1.813-5.766 1.813-0.922 0-1.75-0.187-2.469-0.547l-0.438-0.219c-1.578-0.797-2.828-1.422-4.75-1.422-2.25 0-5.422 1.172-7.25 2.281-0.156 0.094-0.344 0.141-0.516 0.141s-0.344-0.047-0.5-0.125c-0.313-0.187-0.5-0.516-0.5-0.875v-11.594c0-0.344 0.187-0.672 0.484-0.859 1-0.594 4.531-2.547 7.812-2.547 2.609 0 4.734 0.953 6.531 1.828 0.406 0.203 0.875 0.297 1.391 0.297 1.844 0 3.875-1.172 4.844-1.75 0.203-0.109 0.375-0.203 0.484-0.266 0.313-0.156 0.672-0.141 0.969 0.031 0.297 0.187 0.484 0.516 0.484 0.859z"
        />
      </svg>
    </div>
  </div>
</DocumentFragment>
`;
